Algorithm Aversion
…
#adds percentage to cummulated DF
summ.cumm <- 
  summ.cumm %>% 
  group_by(Topic, Year) %>% 
  mutate(All = sum(Sent),percent=(100*Sent/All))

summ.cumm

## # A tibble: 324 × 6
## # Groups:   Topic, Year [84]
##     Year Topic    VADERclass  Sent   All percent
##    <dbl> <chr>    <fct>      <int> <int>   <dbl>
##  1  2010 Business Aversive       2   297   0.673
##  2  2010 Business Negative      14   297   4.71 
##  3  2010 Business Neutral      226   297  76.1  
##  4  2010 Business Positive      55   297  18.5  
##  5  2011 Business Aversive       7   337   2.08 
##  6  2011 Business Negative      17   337   5.04 
##  7  2011 Business Neutral      217   337  64.4  
##  8  2011 Business Positive      96   337  28.5  
##  9  2012 Business Aversive       4   357   1.12 
## 10  2012 Business Negative      36   357  10.1  
## # … with 314 more rows
…
